…
`matrixBP` comes with a simulated data set for running examples, and
we’ll use ColorBrewer’s Set3 for the group colors used in the
`facet_grid`.

``` r
# Load the data
data(metlip)

# view structure of `metlip`
metlip
```

    # A tibble: 768 × 7
       Lipid         Group Acyl_1 Acyl_2 sample log2FC neg_log_p
       <chr>         <fct> <chr>  <chr>  <chr>   <dbl>     <dbl>
     1 PC(14:0_14:0) PC    C14:0  C14:0  A      -0.205      1.83
     2 PC(14:0_16:0) PC    C14:0  C16:0  A      -0.237      1.66
     3 PC(14:0_18:0) PC    C14:0  C18:0  A      -0.712      2.45
     4 PC(16:1_18:0) PC    C16:1  C18:0  A      -0.239      2.26
     5 PC(18:0_18:0) PC    C18:0  C18:0  A       0.434      1.73
     6 PC(14:0_18:1) PC    C14:0  C18:1  A      -0.241      1.92
     7 PC(16:1_18:1) PC    C16:1  C18:1  A       0.543      2.70
     8 PC(18:0_18:1) PC    C18:0  C18:1  A      -0.264      1.69
     9 PC(18:1_18:1) PC    C18:1  C18:1  A      -0.208      1.60
    10 PC(16:0_18:2) PC    C16:0  C18:2  A      -0.240      2.17
    # ℹ 758 more rows
…
